{
	"credit": "Made with Blockbench",
	"ambientocclusion":"false",
	"textures": {
		"1": "block/birch_leaves_big",
		"2": "block/birch_log_dark"
	},
	"elements": [
		{
			"from": [1, 0, -5],
			"to": [1, 20, 19],
			"rotation": {"angle": -22.5, "axis": "y", "origin": [1, 8, 7], "rescale": true},
			"faces": {
				"north": {"uv": [0, 0, 0, 16], "texture": "#1", "tintindex": 0},
				"east": {"uv": [0, 0, 16, 16], "texture": "#1", "tintindex": 0},
				"south": {"uv": [0, 0, 0, 16], "texture": "#1", "tintindex": 0},
				"west": {"uv": [0, 0, 16, 16], "texture": "#1", "tintindex": 0},
				"up": {"uv": [0, 0, 16, 0], "rotation": 270, "texture": "#1", "tintindex": 0},
				"down": {"uv": [0, 0, 16, 0], "rotation": 90, "texture": "#1", "tintindex": 0}
			}
		},
		{
			"from": [13, -2, -7],
			"to": [13, 20, 15],
			"rotation": {"angle": 45, "axis": "y", "origin": [15, 8, 5]},
			"faces": {
				"north": {"uv": [0, 0, 0, 16], "rotation": 180, "texture": "#1", "tintindex": 0},
				"east": {"uv": [0, 0, 16, 16], "rotation": 180, "texture": "#1", "tintindex": 0},
				"south": {"uv": [0, 0, 0, 16], "rotation": 180, "texture": "#1", "tintindex": 0},
				"west": {"uv": [0, 0, 16, 16], "rotation": 180, "texture": "#1", "tintindex": 0},
				"up": {"uv": [0, 0, 16, 0], "rotation": 90, "texture": "#1", "tintindex": 0},
				"down": {"uv": [0, 0, 16, 0], "rotation": 270, "texture": "#1", "tintindex": 0}
			}
		},
		{
			"from": [-4, 0, 14],
			"to": [20, 20, 14],
			"rotation": {"angle": 22.5, "axis": "y", "origin": [8, 8, 14], "rescale": true},
			"faces": {
				"north": {"uv": [0, 0, 16, 16], "texture": "#1", "tintindex": 0},
				"east": {"uv": [0, 0, 0, 16], "texture": "#1", "tintindex": 0},
				"south": {"uv": [0, 0, 16, 16], "texture": "#1", "tintindex": 0},
				"west": {"uv": [0, 0, 0, 16], "texture": "#1", "tintindex": 0},
				"up": {"uv": [0, 0, 16, 0], "texture": "#1", "tintindex": 0},
				"down": {"uv": [0, 0, 16, 0], "texture": "#1", "tintindex": 0}
			}
		},
		{
			"from": [4, 6, 0],
			"to": [7, 9, 4],
			"faces": {
				"north": {"uv": [0, 0, 2, 2], "texture": "#2"},
				"east": {"uv": [0, 0, 6, 2], "texture": "#2"},
				"south": {"uv": [0, 0, 2, 2], "texture": "#2"},
				"west": {"uv": [0, 0, 6, 2], "texture": "#2"},
				"up": {"uv": [0, 0, 2, 6], "texture": "#2"},
				"down": {"uv": [0, 0, 2, 6], "texture": "#2"}
			}
		},
		{
			"from": [12, 6, 7],
			"to": [16, 9, 10],
			"faces": {
				"north": {"uv": [0, 0, 5, 2], "texture": "#2"},
				"east": {"uv": [0, 0, 2, 2], "texture": "#2"},
				"south": {"uv": [0, 0, 5, 2], "texture": "#2"},
				"west": {"uv": [0, 0, 2, 2], "texture": "#2"},
				"up": {"uv": [0, 0, 2, 5], "rotation": 90, "texture": "#2"},
				"down": {"uv": [0, 0, 2, 5], "rotation": 270, "texture": "#2"}
			}
		},
		{
			"from": [10, 5, 4],
			"to": [14, 8, 7],
			"faces": {
				"north": {"uv": [0, 0, 5, 2], "texture": "#2"},
				"east": {"uv": [0, 0, 2, 2], "texture": "#2"},
				"south": {"uv": [0, 0, 5, 2], "texture": "#2"},
				"west": {"uv": [0, 0, 2, 2], "texture": "#2"},
				"up": {"uv": [0, 0, 2, 5], "rotation": 90, "texture": "#2"},
				"down": {"uv": [0, 0, 2, 5], "rotation": 270, "texture": "#2"}
			}
		},
		{
			"from": [7, 6, 3],
			"to": [10, 9, 6],
			"faces": {
				"north": {"uv": [0, 0, 5, 2], "texture": "#2"},
				"east": {"uv": [0, 0, 2, 2], "texture": "#2"},
				"south": {"uv": [0, 0, 5, 2], "texture": "#2"},
				"west": {"uv": [0, 0, 2, 2], "texture": "#2"},
				"up": {"uv": [0, 0, 2, 5], "rotation": 90, "texture": "#2"},
				"down": {"uv": [0, 0, 2, 5], "rotation": 270, "texture": "#2"}
			}
		},
		{
			"from": [0, 6, 7],
			"to": [3, 9, 10],
			"faces": {
				"north": {"uv": [0, 0, 5, 2], "texture": "#2"},
				"east": {"uv": [0, 0, 2, 2], "texture": "#2"},
				"south": {"uv": [0, 0, 5, 2], "texture": "#2"},
				"west": {"uv": [0, 0, 2, 2], "texture": "#2"},
				"up": {"uv": [0, 0, 2, 5], "rotation": 90, "texture": "#2"},
				"down": {"uv": [0, 0, 2, 5], "rotation": 270, "texture": "#2"}
			}
		},
		{
			"from": [2, 6, 4],
			"to": [5, 9, 7],
			"faces": {
				"north": {"uv": [0, 0, 5, 2], "texture": "#2"},
				"east": {"uv": [0, 0, 2, 2], "texture": "#2"},
				"south": {"uv": [0, 0, 5, 2], "texture": "#2"},
				"west": {"uv": [0, 0, 2, 2], "texture": "#2"},
				"up": {"uv": [0, 0, 2, 5], "rotation": 90, "texture": "#2"},
				"down": {"uv": [0, 0, 2, 5], "rotation": 270, "texture": "#2"}
			}
		},
		{
			"from": [3, 11, 7],
			"to": [6, 14, 10],
			"faces": {
				"north": {"uv": [0, 0, 5, 2], "texture": "#2"},
				"east": {"uv": [0, 0, 2, 2], "texture": "#2"},
				"south": {"uv": [0, 0, 5, 2], "texture": "#2"},
				"west": {"uv": [0, 0, 2, 2], "texture": "#2"},
				"up": {"uv": [0, 0, 2, 5], "rotation": 90, "texture": "#2"},
				"down": {"uv": [0, 0, 2, 5], "rotation": 270, "texture": "#2"}
			}
		},
		{
			"from": [4, 8, 10],
			"to": [7, 13, 13],
			"faces": {
				"north": {"uv": [0, 0, 5, 2], "texture": "#2"},
				"east": {"uv": [0, 0, 2, 2], "texture": "#2"},
				"south": {"uv": [0, 0, 5, 2], "texture": "#2"},
				"west": {"uv": [0, 0, 2, 2], "texture": "#2"},
				"up": {"uv": [0, 0, 2, 5], "rotation": 90, "texture": "#2"},
				"down": {"uv": [0, 0, 2, 5], "rotation": 270, "texture": "#2"}
			}
		},
		{
			"from": [4, 6, 13],
			"to": [7, 9, 16],
			"faces": {
				"north": {"uv": [0, 0, 2, 2], "texture": "#2"},
				"east": {"uv": [0, 0, 4, 2], "texture": "#2"},
				"south": {"uv": [0, 0, 2, 2], "texture": "#2"},
				"west": {"uv": [0, 0, 4, 2], "texture": "#2"},
				"up": {"uv": [0, 0, 2, 4], "texture": "#2"},
				"down": {"uv": [0, 0, 2, 4], "texture": "#2"}
			}
		}
	],
	"groups": [
		{
			"name": "leaves",
			"origin": [8, 8, 8],
			"children": [0, 1, 2]
		},
		{
			"name": "branch1",
			"origin": [8, 8, 8],
			"children": [3, 4, 5, 6]
		},
		{
			"name": "branch2",
			"origin": [8, 8, 8],
			"children": [7, 8]
		},
		{
			"name": "branch3",
			"origin": [8, 8, 8],
			"children": [9, 10, 11]
		}
	]
}